1 10 20
100 200 125
201 210 89
900 1000 174
800 1000 179
384403 950234 525
17176 421392 449
416363 778744 509
98371 298370 443
605782 702439 509
671863 770234 504
643340 858996 525
808419 906849 525
646672 831510 504
252416 950400 525
413523 812361 509
843219 886198 432
984151 989893 427
140214 999945 525
326997 798504 509
903728 918678 476
785610 945334 525
593444 735041 509
564332 834028 509
395202 466567 449
697769 997737 525
560564 791150 509
989246 992970 352
436016 837292 509
870364 916152 476
50429 202711 383
991565 994626 365
761475 774697 468
379981 961482 525
129371 488231 449
926393 971817 507
621493 757743 509
915695 917802 383
313990 476549 449
681782 961986 525
7864 539359 470
744584 751811 393
388107 704052 509
25060 956108 525
168683 249504 443
400972 781619 509
717420 979385 525
319996 502586 449
980726 996960 427
829398 903339 525
775814 838559 525
918495 935575 476
262916 323979 407
556949 580435 421
155170 774527 509
260030 647108 509
3345 573521 470
388590 968660 525
61201 190627 383
16732 931479 525
869637 927669 476
696284 714302 504
348925 622296 470
921179 959794 507
164497 905238 525
24271 110033 354
529870 972787 525
872790 984361 507
702941 886767 525
786854 973124 525
764893 821442 468
36988 256086 443
696793 880083 525
672633 961825 525
423567 534504 470
446982 843651 525
811445 942311 525
526100 904103 525
820046 903884 525
583400 636153 509
305111 930817 525
385815 768154 509
51656 313217 443
895170 996667 507
908314 980510 507
370921 871141 525
671833 700813 442
105739 151726 375
294838 746027 509
73731 824300 509
435510 889456 525
376270 543661 470
660744 898900 525
702698 970277 525
316344 611780 470
852132 917467 476
540409 856740 525
347562 432928 449
652754 791250 504
166987 262952 443
421942 545531 470
621562 637918 509
900111 976926 507
211731 783984 509
837554 872587 525
