1 10 20
100 200 125
201 210 89
900 1000 174
236 967 179
515 478 142
637 347 142
270 979 179
704 771 153
763 756 153
616 308 144
8 379 144
460 85 144
31 585 144
476 142 144
155 316 131
64 491 144
244 935 179
114 329 144
690 890 179
6 607 144
210 15 125
113 863 171
217 53 125
583 952 179
552 259 144
104 342 144
995 535 179
122 771 171
226 197 120
535 133 144
648 179 144
608 673 145
205 798 171
939 819 179
911 439 179
13 156 122
889 77 179
272 319 131
951 495 179
578 136 144
746 942 179
764 61 171
593 997 179
315 662 145
758 437 171
382 332 126
723 851 153
618 122 144
8 476 144
881 788 179
607 516 137
878 877 55
227 85 125
87 515 144
163 452 144
630 604 132
230 293 128
327 935 179
787 640 171
907 723 179
691 855 171
812 335 171
166 108 122
966 353 179
397 185 144
906 501 179
609 980 179
634 946 179
604 40 144
854 576 171
254 906 179
923 351 179
892 297 179
722 41 171
355 831 171
656 663 114
682 510 145
47 315 131
335 788 171
600 924 179
819 715 153
134 765 171
508 806 171
924 909 130
234 557 144
419 484 129
282 931 179
612 687 145
872 581 179
156 69 122
128 848 171
247 662 145
935 851 179
13 446 144
148 913 179
898 4 179
899 527 179
642 841 171
37 332 144
392 269 144
285 187 128
77 842 171
109 512 144
420 534 142
790 713 153
119 573 144
238 392 144
65 171 125
358 132 144
997 40 179
222 113 125
316 826 171
704 891 179
435 276 144
535 396 142
946 402 179
853 703 171
43 268 128
452 260 144
208 895 179
250 332 144
966 456 179
969 681 179
924 498 179
719 322 171
498 349 142
84 268 128
351 818 171
667 15 145
218 471 144
642 428 142
78 773 171
427 387 134
106 826 171
938 734 179
256 221 128
125 733 171
83 181 125
978 879 174
169 166 112
726 289 171
615 233 144
300 887 179
18 289 128
88 388 144
277 511 144
43 446 144
633 216 144
347 35 144
937 796 179
15 448 144
260 333 144
196 371 144
770 675 171
951 785 179
496 616 137
998 73 179
549 163 144
592 705 171
472 758 171
133 811 171
867 624 171
820 9 171
476 835 171
419 184 144
246 762 171
438 283 144
198 591 144
579 204 144
117 472 144
369 356 95
770 719 153
675 356 145
15 315 131
31 470 144
