1 10 20
100 200 125
201 210 89
900 1000 174
756440 789879 468
105430 553701 470
674827 117639 509
546317 774766 509
93863 698167 509
169522 873884 525
23484 562945 470
896888 807609 525
395858 681285 509
932981 699656 525
121536 806871 509
526885 451972 470
511383 203137 449
694317 790986 504
504513 718808 509
791205 56313 509
175254 213156 373
642364 9815 509
537329 401035 470
133489 922226 525
633316 683384 442
690615 591683 509
158489 493873 449
864898 47031 525
847205 755617 525
855553 619546 525
339608 506573 449
345180 145092 443
438580 234983 449
439903 945380 525
49820 909300 525
668915 814236 504
162360 53062 383
938232 303294 525
601475 501129 470
252807 777452 509
436072 206634 449
718674 860061 525
133192 854471 525
329304 561476 470
725554 690558 504
746943 446672 509
206679 119849 383
86485 733759 509
443901 270144 449
31501 823085 509
40028 855150 525
660369 870713 525
311495 233926 407
494997 925383 525
937970 541840 525
41027 712512 509
777020 471258 509
282870 256302 407
995416 998490 440
862894 855147 388
232455 787627 509
517325 883052 525
671936 385177 509
803838 184595 509
498927 225789 449
647636 118245 509
187259 474583 449
577542 199213 470
538929 193349 470
200530 441078 449
806031 489099 509
69536 234212 443
305657 480241 449
977699 319073 525
27683 449030 449
782335 757689 468
21639 72627 340
81747 544716 470
876672 441199 525
339935 936909 525
400246 733374 509
407861 282137 441
612522 864941 525
777883 605287 509
996418 626840 525
512607 975563 525
622838 527517 452
323442 665472 509
474065 331699 449
501997 520798 470
727201 887365 525
415375 893361 525
252451 951200 525
835961 280513 509
13031 997610 525
93248 633050 509
277698 381708 441
357073 120042 443
258041 899638 525
214961 175572 373
24821 836764 509
491193 76353 449
746813 269222 509
397664 653718 509