1 999999 525
1 999999 525
1 10 20
9824 100003 351
10 10 7
873 873124 525
1 1000 179
8000 8999 247
1 502132 449
1 999 179
1001 2000 182
1001 1999 182
999999 999999 259
406504 716007 509
6358 927466 525
946134 956847 414
46119 541294 470
759539 840171 525
327551 648469 509
249356 366035 441
880055 973332 507
157738 491495 449
184213 640658 509
33060 539151 470
158081 722998 509
101835 391180 443
421443 573758 470
37878 977672 525
338167 480242 449
62477 621527 470
184651 599365 470
40284 213958 383
687669 892238 525
257077 669651 509
775831 792311 437
347015 678196 509
104121 729239 509
121133 724137 509
191340 429951 449
344044 430319 449
410662 587386 470
192613 594290 470
808966 810768 406
168856 708819 509
284669 987017 525
437430 884197 525
61096 985155 525
424597 881681 525
900689 976179 507
667804 919507 525
309643 864825 525
524843 993932 525
89272 828848 509
200251 426372 449
865989 929147 476
102579 479370 449
330199 757568 509
469703 824497 509
295501 909850 525
236763 728585 509
443755 600075 470
616378 681182 509
58567 272896 443
732263 993190 525
410271 867184 525
458642 892288 525
301419 965430 525
309250 320950 384
768866 856318 525
60422 204027 383
623165 862052 525
710403 979102 525
76579 947147 525
402051 945896 525
789511 855576 525
386572 951543 525
303389 453960 449
243928 631013 509
62488 341329 443
515884 757399 509
202128 427073 449
180669 333969 443
155062 761565 509
188892 524355 470
53078 887611 525
560550 863656 525
168011 964127 525
496414 586395 470
424077 993503 525
497638 737111 509
271710 471606 449
261441 768692 509
60040 597657 470
499185 927623 525
27707 459365 449
58730 69889 335
29409 297043 443
1655 481022 449
405520 442418 449
532370 797871 509
191313 399938 443
341874 897052 525
277213 875080 525
654960 801125 504
371242 600851 470
468101 579889 470
101296 292161 443
392045 789260 509
118274 216439 386
313338 974527 525
102827 660132 509
91494 170805 383
767147 786185 468
640631 981972 525
815509 842134 525
312643 860811 525
718824 771238 468
513100 752186 509
52678 349312 443
37670 547374 470
351214 499033 449
313787 597281 470
366569 642211 509
642009 906373 525
707634 909144 525
429611 938107 525
224739 329456 443
262795 432551 449
340159 632534 509
158910 557675 470
530971 747331 509
730650 860260 525
66329 448375 449
52332 405034 443
119918 290111 443
873720 977645 507
45791 858534 525
485894 851967 525
108402 923842 525
234487 604693 470
135072 684295 509
786874 812273 468
491067 599760 470
110850 768380 509
352010 457977 449
178375 334982 443
50822 185872 383
60580 357073 443
391060 676044 509
364191 398585 436
194421 380565 443
117728 166978 383
545939 766043 509
174274 253748 443
734873 873079 525
816299 953342 525
526774 582669 452
322798 695054 509
319973 756789 509
341298 584545 470
590505 884291 525
722951 771253 468
63218 950443 525
207021 743511 509
260992 466732 449
174111 808035 509
74774 644826 509
63048 299379 443
744099 807232 468
792935 903060 525
79119 620017 470
458345 736216 509
408726 724750 509
442644 888427 525
292527 435589 449
517823 975852 525
59749 634545 509
168939 820398 509
133382 237560 443
385147 855106 525
821909 899941 525
100692 771077 509
326052 836680 509
387081 502998 449
30028 312354 443
103333 610854 470
156204 313957 443
117864 283616 443
477293 742330 509
190009 534051 470
229611 939909 525
704597 924351 525
414788 464321 444
124948 555763 470
185676 353268 443
73877 519388 470
21658 231699 443
283662 347154 441
570667 877253 525
124340 858554 525
