1 10 20
100 200 125
201 210 89
900 1000 174
10 1 20
1 100 119
1 1000 179
1 10000 262
1 999999 525
1 100000 351
100000 200000 383
200000 300000 443
300000 400000 441
400000 500000 449
500000 600000 470
600000 700000 509
700000 800000 504
800000 900000 525
900000 999999 507
30 30 19
12351 138787 354
1412 1231 177
10 12 15
44888 4288 324
84 842 171
92582 85289 333
999 2842 209
482858 84828 449
48888 8888 324
91491 19401 351
901491 19401 525
91948 81414 333
91040 148848 375
8848 84848 351
99999 999912 525
100001 199999 383
10000 10000 30
1929 9148 262
1 1 1
2 41 112
941 118 179
19994 94941 351
999999 1 525
1 110 119
8149 81491 351
14891 89141 351
89241 8194 351
91488 148914 375
8814 84188 351
9999 1999 262
914811 4818 525
994999 91481 525
8888 8888 35
10 10 7
2 3 8
941 1849 182
8941 841 262
4819 41849 324
1481 8181 262
9481 8149 260
91418 1489 351
8914 8419 216
9910 4190 262
901491 819481 525
9014 190410 383
20000 20000 31
220914 148191 386
490148 418914 444
418941 418941 113
841894 841948 220
849184 528955 525
528952 582952 452
87575 57572 351
852572 852892 282
528592 10000 470
19999 19999 67
99949 494994 449
98484 48841 351
100000 99999 227
100001 199999 383
200001 299999 443
10000 10000 30
814814 418418 509
84194 89148 333
853892 85922 525
859258 14894 525
84198 418941 449
81948 84194 320
8419 8419 35
8475 5375 262
8258 24614 282
8149 74194 340
89147 19847 351
81947 98145 333
7392 98245 351
982347 97235 525
982357 23479 525
2284 420842 449
428052 529741 470
1479 42792 324
80427 2947 351
92472 72941 351
91470 147025 375
14971 17941 279
714297 147974 509
19734 97147 351
129749 17492 354
