............
----------------------------------------------------------------------
Ran 12 tests in 0.031s

OK

Name             Stmts   Miss Branch BrPart  Cover   Missing
------------------------------------------------------------
Collatz.py          31      0     12      0   100%
TestCollatz.py      52      0      0      0   100%
------------------------------------------------------------
TOTAL               83      0     12      0   100%
